{
  "listening": "",
  "telegram": {
    "token": "",
    "url": "https://api.telegram.org/bot",
    "alias": "@CarlinCalvoBot",
    "bbhookgroup": -245539111
  },
  "meme": {
    "url": "https://api.imgflip.com/caption_image",
    "user": "",
    "pass": ""
  }
}
