[
  {"id": 103070879, "name": "gordo"},
  {"id": 63593656, "name": "suarez"},
  {"id": 103990714, "name": "boludo"},
  {"id": 97328019, "name": "ramon"},
  {"id": 97634149, "name": "llora"},
  {"id": 97634745, "name": "documentos"},
  {"id": 113963989, "name": "casa"},
  {"id": 14230520, "name": "blackwat"},
  {"id": 89370399, "name": "think"},
  {"id": 3643225, "name": "wat"},
  {"id": 19763904, "name": "jesus"},
  {"id": 133659481, "name": "fefe" },
  {"id": 74057658, "name": "basta"},
  {"id": 136396292, "name": "rengo"},
  {"id": 134225909, "name": "capo" },
  {"id": 142091042, "name": "ronaldo"},
  {"id": 142091164, "name": "ribery"},
  {"id": 142091198, "name": "puyol"},
  {"id": 142092115, "name": "higuain"},
  {"id": 142091277, "name": "messi"}
]
